word_cloud.utf8.md
…
dim(cran_code)

## [1] 34477     7

cran_code %>% 
  count(pkg_name,sort = T)

## # A tibble: 14,699 x 2
##    pkg_name         n
##    <chr>        <int>
##  1 httpuv          17
##  2 sass            16
##  3 igraph          15
##  4 seqminer        15
##  5 osqp            14
##  6 RcppParallel    14
##  7 XML             14
##  8 cubature        13
##  9 fs              13
## 10 genepop         13
## # ... with 14,689 more rows
options(digits = 0)

#New attempt
clean_avg <- cran_code %>% 
  add_count(language) %>% 
  filter(n > 20) %>% 
  group_by(language) %>% 
  summarise(count = n(),
    avg = mean(code)) %>% 
  mutate(language = fct_reorder(language, avg)) %>% 
  arrange(desc(avg))

clean_avg

## # A tibble: 29 x 3
##    language     count   avg
##    <fct>        <int> <dbl>
##  1 SVG            243 7529.
##  2 JSON           184 6023.
##  3 Java            65 5283.
##  4 Fortran 95      25 4558.
##  5 XML            159 3355.
##  6 C/C++ Header  1867 3160.
##  7 JavaScript     370 2859.
##  8 Fortran 77     312 2635.
##  9 Fortran 90     106 2319.
## 10 C             2162 2204.
## # ... with 19 more rows
…
high <- cran_code %>% 
  arrange(desc(code))
view(clean_avg)

clean <- cran_code %>% 
  group_by(language) %>% 
  summarise(count = n()) %>%
  filter(language != "R") %>% 
  arrange(desc(count))

view(clean)
clean

## # A tibble: 107 x 2
##    language     count
##    <chr>        <int>
##  1 Markdown      5710
##  2 HTML          3680
##  3 C             2162
##  4 C++           2041
##  5 C/C++ Header  1867
##  6 Bourne Shell   500
##  7 CSS            459
##  8 TeX            401
##  9 JavaScript     370
## 10 Fortran 77     312
## # ... with 97 more rows
…
